3 {discord} | The Complete Package: An Applied Thesis for Programming in R
…
To be extra safe in our analysis, we specify that the sibling-pairs should be from unique households (i.e. remove households with more than one sibling-pair).

flu_modeling_data <- flu_modeling_data %>%
  group_by(extended_id) %>%
  slice_sample() %>%
  ungroup()

The data we will use for modeling now contains meta-information for each kin pair, including sex and race of each individual, flu vaccination status for the biennial survey between 2006-2016, and a total flu vaccination count for that period. The total vaccination count ranges from 0 - 5, where 0 indicates that the individual did not get a vaccine in any year between 2006-2016 and 5 indicates that an individual got at least 5 vaccines between 2006-2016. Though our data set has individual years, we are only interested in the total. A subset of the data we will use in our regression looks like this:

flu_modeling_data %>%
  select(contains(c("extended_id", "subject_tag", "flu_total", "race", "sex", "s00_h40")))

## # A tibble: 1,067 x 11
##    extended_id subject_tag_s1 subject_tag_s2 flu_total_s1 flu_total_s2 race_s1
##          <int>          <int>          <int>        <int>        <int>   <dbl>
##  1          17           1700           1800            0            0       0
##  2          29           2900           3000            2            0       0
##  3          37           3700           3800            1            5       0
##  4          40           4000           4100            2            0       0
##  5          58           5800           5900            5            0       0
##  6          61           6100           6200            3            4       0
##  7          67           6700           6800            4            4       0
##  8          74           7500           7600            0            0       0
##  9          83           8300           8400            0            3       1
## 10          85           8500           8700            0            4       1
## # … with 1,057 more rows, and 5 more variables: race_s2 <dbl>, sex_s1 <dbl>,
## #   sex_s2 <dbl>, s00_h40_s1 <dbl>, s00_h40_s2 <dbl>
…
