4 Introduction | Senior Thesis
…
  Skip to main content

        Senior Thesis

      Show table of contents

4 Introduction

Surveys are ubiquitous in data science. A clear example is a simple demographic form. Our package allows you to easily create questionnaires using Shiny.2 We provide two functions to do this: surveyOutput() and renderSurvey(). Both of these functions take in a data frame containing question information that follows a specific format. To illustrate them in use, we will show you a questionnaire from McGowan et al. (unpublished) that is built into the shinysurveys package:

## # A tibble: 54 x 7
##    question    option   input_type input_id dependence dependence_value required
##    <chr>       <chr>    <chr>      <chr>    <chr>      <chr>            <lgl>   
##  1 What's you… 25       numeric    age      <NA>       <NA>             TRUE    
##  2 Which best… Female   mc         gender   <NA>       <NA>             TRUE    
##  3 Which best… Male     mc         gender   <NA>       <NA>             TRUE    
##  4 Which best… Prefer … mc         gender   <NA>       <NA>             TRUE    
##  5 Which best… Prefer … mc         gender   <NA>       <NA>             TRUE    
##  6 Which best… <NA>     text       self_de… gender     Prefer to self … FALSE   
##  7 What is th… Did not… select     educati… <NA>       <NA>             FALSE   
##  8 What is th… Some hi… select     educati… <NA>       <NA>             FALSE   
##  9 What is th… High sc… select     educati… <NA>       <NA>             FALSE   
## 10 What is th… Some co… select     educati… <NA>       <NA>             FALSE   
## # … with 44 more rows
…
