3 {shinysurveys} | Senior Thesis
…
Add an example of {shiny} in industry. Mastering Shiny references Silicon Valley metrics. Maybe ask R4DS members?

{shiny} is “used in almost as many niches and industries as R itself is” (Hadley Wickham 2020). As such, the work presented in this section is usable in many contexts.

3.2 Motivation

Surveys are extremely useful tools for gathering information from individuals on a large scale and are used in a variety of domains. Within the medical research field, for example, there are often three types of surveys: epidemiological questionnaires, ones on attitudes towards health services or interventions, and polls to assess knowledge about specific topics (Jones, Baxter, and Khanduja 2013). Neuroscientific research often uses them to correlate behaviors (e.g. political ideology or X) with neuroimaging data (see (Ahn et al. 2014) as an example).

The ability to easily collect and analyze survey data is, therefore, extremely important. Many platforms provide user-friendly methods to do this. Google Forms, SurveyMonkey, and Qualtrics are all popular options. For many cases, they work extremely well. One limitation, though, is often the ease with which they integrate with existing data analysis and/or research pipelines. Because of R’s prevalence in academia and research (RStudio 2018b; Carson and Basiliko 2016), {shinysurveys} was developed to streamline the data collection and analysis process. To do this, we utilized a package called {shiny}, which makes it easy to build interactive web applications with R (Chang et al. 2021).

3.3 A survey of {shinysurveys}

Surveys are ubiquitous in data science. A clear example is a simple demographic form. Our package allows you to easily create questionnaires using {shiny}.2 This vignette introduces you to the main functionality of our package as it is currently published on CRAN.3 We provide two functions to do this: surveyOutput() and renderSurvey(). Both of these take in a data frame containing question information that follows a specific format. To illustrate them in use, we will show you a questionnaire from McGowan et al. (unpublished) that is built into the shinysurveys package:4

## # A tibble: 54 x 7
##    question    option   input_type input_id dependence dependence_value required
##    <chr>       <chr>    <chr>      <chr>    <chr>      <chr>            <lgl>   
##  1 What's you… 25       numeric    age      <NA>       <NA>             TRUE    
##  2 Which best… Female   mc         gender   <NA>       <NA>             TRUE    
##  3 Which best… Male     mc         gender   <NA>       <NA>             TRUE    
##  4 Which best… Prefer … mc         gender   <NA>       <NA>             TRUE    
##  5 Which best… Prefer … mc         gender   <NA>       <NA>             TRUE    
##  6 Which best… <NA>     text       self_de… gender     Prefer to self … FALSE   
##  7 What is th… Did not… select     educati… <NA>       <NA>             FALSE   
##  8 What is th… Some hi… select     educati… <NA>       <NA>             FALSE   
##  9 What is th… High sc… select     educati… <NA>       <NA>             FALSE   
## 10 What is th… Some co… select     educati… <NA>       <NA>             FALSE   
## # … with 44 more rows
…
